Up-down_&_decade_counters/simulate.log
Time resolution is 1 ps
Time=0 | sel=0 | count= 0
Time=15000 | sel=0 | count= 1
Time=25000 | sel=0 | count= 2
Time=35000 | sel=0 | count= 3
Time=45000 | sel=0 | count= 4
Time=55000 | sel=0 | count= 5
Time=65000 | sel=0 | count= 6
Time=75000 | sel=0 | count= 7
Time=85000 | sel=0 | count= 8
Time=95000 | sel=0 | count= 9
Time=105000 | sel=0 | count= 0
Time=110000 | sel=1 | count= 0
Time=115000 | sel=1 | count= 9
Time=125000 | sel=1 | count= 8
Time=135000 | sel=1 | count= 7
Time=145000 | sel=1 | count= 6
Time=155000 | sel=1 | count= 5
Time=165000 | sel=1 | count= 4
Time=175000 | sel=1 | count= 3
Time=185000 | sel=1 | count= 2
Time=195000 | sel=1 | count= 1
Time=205000 | sel=1 | count= 0
Time=220000 | sel=0 | count= 0
Time=225000 | sel=0 | count= 1
Time=235000 | sel=0 | count= 2
Time=245000 | sel=0 | count= 3
Time=255000 | sel=0 | count= 4
Time=265000 | sel=0 | count= 5
$finish called at time : 270 ns : File "E:/verilog/Up-down-counter/Up-down-counter.srcs/sources_1/new/up_down_decade_counter_tb.v" Line 43
